…
## Value

A tibble containing the statistical publication data.

## Examples

``` r
# \donttest{
# Download and import the current MADIS data:
current_madis_data <-
  read_apra(stat_pub = "madis", cur_hist = "current")

# Examine the current MADIS data:
print(current_madis_data)
#> # A tibble: 287,550 × 9
#>    statistics_publication_name               date           abn institution_name
#>    <chr>                                     <date>       <dbl> <chr>           
#>  1 Monthly Authorised Deposit-taking Instit… 2019-03-31 7.07e10 ABN AMRO Bank N…
#>  2 Monthly Authorised Deposit-taking Instit… 2019-03-31 7.07e10 ABN AMRO Bank N…
#>  3 Monthly Authorised Deposit-taking Instit… 2019-03-31 7.07e10 ABN AMRO Bank N…
#>  4 Monthly Authorised Deposit-taking Instit… 2019-03-31 7.07e10 ABN AMRO Bank N…
#>  5 Monthly Authorised Deposit-taking Instit… 2019-03-31 7.07e10 ABN AMRO Bank N…
#>  6 Monthly Authorised Deposit-taking Instit… 2019-03-31 7.07e10 ABN AMRO Bank N…
#>  7 Monthly Authorised Deposit-taking Instit… 2019-03-31 7.07e10 ABN AMRO Bank N…
#>  8 Monthly Authorised Deposit-taking Instit… 2019-03-31 7.07e10 ABN AMRO Bank N…
#>  9 Monthly Authorised Deposit-taking Instit… 2019-03-31 7.07e10 ABN AMRO Bank N…
#> 10 Monthly Authorised Deposit-taking Instit… 2019-03-31 7.07e10 ABN AMRO Bank N…
#> # ℹ 287,540 more rows
#> # ℹ 5 more variables: balance_sheet_category <chr>, series <chr>,
#> #   frequency <chr>, unit <chr>, value <dbl>
…
